PROC 0                                                                  00010000
   CONTROL NOFLUSH NOMSG NOLIST                                         00020000
   ISPEXEC BROWSE DATASET('PPST.CNTL(CLIST)')                           00100000
END                                                                     00110000
