//XJOBNAME JOB (GAO000),'DATA ENTRY GROUP',MSGLEVEL=(1,1),
//        MSGCLASS=P,CLASS=B,REGION=2048K
/*ROUTE PRINT RMT7
//*
//PRINT  EXEC PGM=SYNCSORT,REGION=100K
//SORTIN    DD DSN=PPSP.INTRANS.PTR.BW.GAOPAG,
//          DISP=(SHR,KEEP)
//SORTOUT   DD SYSOUT=*
//SYSOUT    DD SYSOUT=*
//SYSIN     DD *
     SORT   FIELDS=COPY
//*
//PRINT  EXEC PGM=SYNCSORT,REGION=100K
//SORTIN    DD DSN=PPSP.INTRANS.SPC.BW.GAOPAG,
//          DISP=(SHR,KEEP)
//SORTOUT   DD SYSOUT=*
//SYSOUT    DD SYSOUT=*
//SYSIN     DD *
     SORT   FIELDS=COPY
//*
